<?xml version="1.0" encoding="UTF-8"?>
<svg width="72px" height="72px" viewBox="0 0 72 72" version="1.1" xmlns="http://www.w3.org/2000/svg" xmlns:xlink="http://www.w3.org/1999/xlink">
    <!-- Generator: Sketch 47.1 (45422) - http://www.bohemiancoding.com/sketch -->
    <title>Clock</title>
    <desc>Created with Sketch.</desc>
    <defs></defs>
    <g id="Page-1" stroke="none" stroke-width="1" fill="none" fill-rule="evenodd">
        <g id="Landing-Page" transform="translate(-108.000000, -288.000000)">
            <g id="Header" transform="translate(-10.000000, -7.000000)">
                <g id="Group-5" transform="translate(52.000000, 295.000000)">
                    <g id="Clock" transform="translate(66.000000, 0.000000)">
                        <circle id="Oval-2" fill="#565562" cx="36" cy="36" r="36"></circle>
                        <path d="M61.2834,36.3916 C61.2834,50.6916 49.6914,62.2836 35.3914,62.2836 C21.0924,62.2836 9.5004,50.6916 9.5004,36.3916 C9.5004,22.0926 21.0924,10.4996 35.3914,10.4996 C49.6914,10.4996 61.2834,22.0926 61.2834,36.3916" id="Fill-1" fill="#43CFD7"></path>
                        <path d="M61.2834,36.3916 C61.2834,50.6916 49.6914,62.2836 35.3914,62.2836 C21.0924,62.2836 9.5004,50.6916 9.5004,36.3916 C9.5004,22.0926 21.0924,10.4996 35.3914,10.4996 C49.6914,10.4996 61.2834,22.0926 61.2834,36.3916 Z" id="Stroke-3" stroke="#FFFFFF" stroke-width="3" stroke-linecap="round"></path>
                        <path d="M37.6624,36.3916 C37.6624,37.6456 36.6454,38.6626 35.3914,38.6626 C34.1384,38.6626 33.1214,37.6456 33.1214,36.3916 C33.1214,35.1376 34.1384,34.1216 35.3914,34.1216 C36.6454,34.1216 37.6624,35.1376 37.6624,36.3916 Z" id="Stroke-5" stroke="#FFFFFF" stroke-width="2" stroke-linecap="round"></path>
                        <path d="M33.1213,36.3916 L23.4793,36.3916" id="Stroke-7" stroke="#FFFFFF" stroke-width="2" stroke-linecap="round"></path>
                        <path d="M35.3918,34.1216 L35.3918,18.9236" id="Stroke-9" stroke="#FFFFFF" stroke-width="2" stroke-linecap="round"></path>
                    </g>
                </g>
            </g>
        </g>
    </g>
</svg>