<?xml version="1.0" encoding="utf-8"?>
<!-- Generator: Adobe Illustrator 19.2.1, SVG Export Plug-In . SVG Version: 6.00 Build 0)  -->
<svg version="1.1" id="Layer_1" xmlns="http://www.w3.org/2000/svg" xmlns:xlink="http://www.w3.org/1999/xlink" x="0px" y="0px"
	 viewBox="0 0 40 42" style="enable-background:new 0 0 40 42;" xml:space="preserve">
<style type="text/css">
	.st0{fill:#FFFFFF;}
</style>
<title>instagram-ico</title>
<desc>Created with Sketch.</desc>
<g id="Page-1">
	<g id="Landing-Page" transform="translate(-451.000000, -4136.000000)">
		<g id="Footer" transform="translate(1.000000, 3988.000000)">
			<path id="instagram-ico" class="st0" d="M470.6,173.5c-3.4,0.4-5.8-0.3-6.6-2.3c-0.8-2,0.3-5.4,4.5-6.5c2.6-0.7,6.1,0.3,7,3
				C476.4,170.5,474,173.1,470.6,173.5 M467.9,162c-5.8,1.5-6,5.1-5.5,8.9s7,4.6,10.5,3.1c3.5-1.5,4.6-4,3.7-7.6
				C475.6,162.8,471.3,161.2,467.9,162 M475.7,175.3c-3.6,2.6-8.9,2.9-11.5,1.6c-2.5-1.3-5-4.1-4.4-8.7c0.6-4.6,3.5-8.2,8.1-8.7
				c2.6-0.3,7.5,0,9.1,4.2C478.7,167.8,479.3,172.7,475.7,175.3 M467.9,158.4c-12.3,2.2-9.5,14.5-7.1,17.8c2.4,3.3,9.5,3.2,13.4,1.5
				c3.9-1.7,6.5-5.4,4.7-12.4C477.1,158.3,470.8,157.9,467.9,158.4 M481.1,158.2c-0.2,1.3-1.4,1.4-2.1,1.3c-0.8-0.1-2.4-2.2,0.4-2.9
				C480.1,156.5,481.3,156.9,481.1,158.2 M479.2,155.9c-3.5,0.5-2.6,3.9-1.4,4.7c1.2,0.8,4.1,0.9,4.4-1.5
				C482.6,156.8,481.1,155.6,479.2,155.9 M483.2,180c-0.5,1.1-1,2.1-3.2,2.2c-2.2,0.2-15.4,0-18.6-0.1c-3.2-0.1-4-0.8-4-0.8
				s0.1-14.7,0.2-18.5c0.1-3.8-0.2-6.9,0.4-7.2c0.6-0.3,4.4-0.6,11.8-0.7c7.4-0.1,11.8,0.2,12.4,0.4c0.6,0.3,1.5,1.3,1.5,6.2
				C483.5,166.4,483.6,178.9,483.2,180 M484.7,160.3c0-2.8-0.3-5.3-2-6.7c-1.7-1.3-13.9-0.9-17.6-0.8c-3.8,0.1-7.4,0.1-8.6,1.1
				c-0.3,0.3-0.9,0.8-1.1,2.2c-0.1,1.5-0.8,20.5-0.5,23.5s1.5,3.5,4,3.5c2.6,0.1,18.6,0.4,21.2,0.3s3.3-1.1,4-3
				C484.9,178.6,484.6,163.1,484.7,160.3 M488,167.1c0.1,0.2,0,1.2,0,1.2s-2-2-2.2-1.7c-0.3,0.3-0.2,0.8-0.2,0.8s2.3,1.6,2.3,1.8
				c0,0.2-0.1,1.1-0.1,1.1s-1.8-1.6-2-1.5c-0.1,0-0.3,0.5-0.2,0.7c0,0.2,2.3,1.5,2.3,1.7v2.1c0,0-1.9-1.9-2.1-2
				c-0.2,0-0.2,0.8-0.2,0.8s2.1,1.9,2.2,2.1c0.1,0.2,0.1,1.5,0.1,1.5s-2-1.9-2.1-1.9c-0.1,0-0.2,0.9-0.2,0.9s2,1.8,2.1,2
				c0.1,0.3,0.1,1.7,0.1,1.7s-2-1.6-2.1-1.6c-0.1,0-0.1,1,0,1.1c0.1,0.1,2.1,1.5,2.1,1.7c0,0.2-0.1,1.7-0.1,1.7s-1.8-1.6-2-1.6
				c-0.2,0-0.2,0.7-0.2,0.7s2.2,1.9,2.2,2s-0.4,1.1-0.4,1.1s-2-2-2.1-2.1c-0.2,0-0.5,0.3-0.5,0.5c0,0.1,2.1,2.1,2,2.2
				c-0.1,0.2-0.2,0.6-0.4,0.6c-0.2,0-2-1.8-2.1-1.8c-0.1,0-0.5,0.6-0.5,0.6s1.9,1.7,1.8,1.8c-0.1,0.1-0.9,0.5-0.9,0.5
				s-1.7-1.5-1.8-1.5c-0.2,0-0.5,0.5-0.5,0.5l1.4,1.4c0,0-0.9,0.3-1.1,0.3c-0.2,0-1.5-1.1-1.7-1.3c-0.3-0.1-1,0.2-1,0.2
				s1.4,1.1,1.2,1.3c-0.2,0.1-8.3,0.4-13.1,0.3c-4.8-0.1-11.5-0.2-13.1-1.1c-1.7-0.8-3.5-3-3.7-7.3c-0.2-4.3,0.3-21.6,0.3-21.6
				c0-1.3-0.1-4.9,1.2-6.1s3.8-1.7,8.4-1.8c4.7,0,16.7,0.2,20.2,0.3c3.5,0.1,5.5,1.3,5.9,3.3c0.4,2,0.9,10.3,0.8,10.3
				c-0.1,0-1.9-1.4-2-1.4c-0.2,0-0.4,0.8-0.2,0.9c0.2,0.1,2.2,1.6,2.3,1.8c0.1,0.3,0.1,1.7,0.1,1.7s-2-2-2.1-1.9
				c-0.2,0.1-0.2,1-0.2,1S488,166.9,488,167.1 M489,155.1c-0.6-4.8-2.3-6.7-7.6-6.9c-5.3-0.2-17.3-0.5-24.5,0
				c-7.2,0.4-6.4,5-6.4,6.3c0,0-0.5,16.7-0.5,19.8c0,3-0.2,4.8,0.8,8.3c1,3.4,2.8,7,7,7.2c4.3,0.2,22.1,0.3,26.4-0.1
				c4.3-0.5,4.7-4,5.5-7.5C490.4,178.6,489.6,159.9,489,155.1"/>
		</g>
	</g>
</g>
</svg>
